<svg width="40" height="40" viewBox="0 0 40 40" fill="none" xmlns="http://www.w3.org/2000/svg">
<g clip-path="url(#clip0_203_2387)">
<path d="M14.1913 21.5934C14.0098 21.5815 13.8279 21.6112 13.6596 21.6802C13.4912 21.7493 13.3409 21.8559 13.22 21.9919C12.984 22.3493 12.8582 22.7682 12.8582 23.1965C12.8582 23.6249 12.984 24.0438 13.22 24.4012C13.3383 24.5292 13.4818 24.6314 13.6414 24.7013C13.8011 24.7711 13.9735 24.8072 14.1478 24.8072C14.3221 24.8072 14.4945 24.7711 14.6541 24.7013C14.8138 24.6314 14.9572 24.5292 15.0755 24.4012C15.3397 24.0538 15.4676 23.6218 15.4352 23.1866C15.4918 22.748 15.3809 22.3042 15.1247 21.9436C15.0036 21.8218 14.8575 21.7275 14.6966 21.6672C14.5357 21.6069 14.3637 21.5821 14.1923 21.5943L14.1913 21.5934Z" fill="white"/>
<path d="M24.5941 15.9301L24.7976 16.1734C24.8174 16.1918 24.8435 16.2021 24.8705 16.2021C24.8976 16.2021 24.9236 16.1918 24.9434 16.1734C25.1081 16.0829 25.2533 15.9606 25.3704 15.8136C25.4477 15.6991 25.4884 15.5637 25.4868 15.4255C25.4899 15.3505 25.4778 15.2757 25.4511 15.2056C25.4244 15.1354 25.3837 15.0714 25.3316 15.0175C25.2794 14.9656 25.2171 14.9249 25.1485 14.8982C25.0799 14.8715 25.0066 14.8593 24.933 14.8623C24.8581 14.8599 24.7835 14.8725 24.7135 14.8991C24.6435 14.9258 24.5794 14.966 24.525 15.0175C24.4717 15.0669 24.4295 15.127 24.4011 15.1939C24.3727 15.2608 24.3588 15.333 24.3603 15.4056C24.3615 15.4901 24.3816 15.5732 24.419 15.6489C24.4647 15.75 24.5236 15.8445 24.5941 15.9301Z" fill="white"/>
<path d="M25.6629 18.2618L24.6916 17.0311C24.6718 17.0127 24.6458 17.0024 24.6187 17.0024C24.5917 17.0024 24.5656 17.0127 24.5458 17.0311C24.3252 17.1542 24.1306 17.3192 23.9731 17.5168C23.8654 17.6599 23.8042 17.8328 23.798 18.0119C23.8062 18.2389 23.8879 18.4572 24.0309 18.6338C24.1075 18.7384 24.2088 18.8224 24.3257 18.8784C24.4426 18.9344 24.5716 18.9606 24.7011 18.9547C24.9019 18.9523 25.0982 18.8954 25.2691 18.79C25.4321 18.6968 25.5742 18.5712 25.6866 18.4208C25.6959 18.4095 25.7029 18.3964 25.707 18.3823C25.7111 18.3682 25.7123 18.3534 25.7104 18.3389C25.7085 18.3243 25.7037 18.3103 25.6962 18.2977C25.6886 18.2851 25.6786 18.2741 25.6667 18.2656L25.6629 18.2618Z" fill="white"/>
<path d="M20.0095 2.24126e-06C16.0533 -0.00187026 12.1854 1.16961 8.89508 3.36627C5.60477 5.56293 3.03985 8.68607 1.52476 12.3406C0.00966559 15.9952 -0.387531 20.017 0.383411 23.8974C1.15435 27.7777 3.0588 31.3423 5.85585 34.1401C8.6529 36.938 12.2169 38.8434 16.097 39.6155C19.9772 40.3875 23.9991 39.9915 27.6541 38.4774C31.3091 36.9634 34.433 34.3993 36.6306 31.1096C38.8282 27.8199 40.0007 23.9524 40 19.9962C39.999 14.6942 37.8927 9.60951 34.1441 5.85987C30.3956 2.11024 25.3115 0.00251175 20.0095 2.24126e-06ZM18.1928 14.569C18.1907 14.5498 18.1938 14.5304 18.2018 14.5128C18.2099 14.4952 18.2225 14.4801 18.2384 14.4691C18.2544 14.4581 18.273 14.4517 18.2923 14.4504C18.3116 14.4492 18.3309 14.4532 18.3481 14.4621H18.775C18.8034 14.4621 18.8306 14.4733 18.8507 14.4934C18.8707 14.5135 18.882 14.5407 18.882 14.569V16.628C18.8812 16.6498 18.887 16.6712 18.8987 16.6896C18.9104 16.7079 18.9274 16.7223 18.9474 16.7307C18.9675 16.7392 18.9896 16.7413 19.0109 16.7368C19.0322 16.7323 19.0516 16.7214 19.0666 16.7056L21.2619 14.5009C21.2868 14.4912 21.3145 14.4912 21.3395 14.5009H21.9075C21.9292 14.5 21.9507 14.5059 21.9691 14.5175C21.9874 14.5292 22.0018 14.5462 22.0102 14.5663C22.0187 14.5864 22.0208 14.6085 22.0163 14.6298C22.0118 14.6511 22.0009 14.6705 21.9851 14.6855L20.1865 16.4245C20.1681 16.4443 20.1578 16.4703 20.1578 16.4974C20.1578 16.5244 20.1681 16.5505 20.1865 16.5703L22.129 19.2417C22.1422 19.2577 22.1505 19.2771 22.1529 19.2977C22.1553 19.3183 22.1517 19.3391 22.1424 19.3576C22.1332 19.3762 22.1188 19.3916 22.101 19.4022C22.0831 19.4127 22.0626 19.4178 22.0419 19.4169H21.4588C21.4451 19.423 21.4302 19.4261 21.4152 19.4261C21.4002 19.4261 21.3854 19.423 21.3717 19.4169L19.7283 17.0862C19.7183 17.0741 19.7057 17.0643 19.6914 17.0576C19.6772 17.051 19.6617 17.0475 19.6459 17.0475C19.6302 17.0475 19.6147 17.051 19.6004 17.0576C19.5862 17.0643 19.5736 17.0741 19.5636 17.0862L18.8839 17.7489C18.8742 17.7738 18.8742 17.8015 18.8839 17.8265V19.3686C18.8839 19.397 18.8726 19.4242 18.8526 19.4442C18.8325 19.4643 18.8053 19.4756 18.7769 19.4756H18.35C18.3216 19.4756 18.2944 19.4643 18.2743 19.4442C18.2543 19.4242 18.243 19.397 18.243 19.3686L18.1928 14.569ZM7.50792 14.569C7.50578 14.5498 7.50889 14.5304 7.51692 14.5128C7.52496 14.4952 7.53761 14.4801 7.55354 14.4691C7.56947 14.4581 7.58808 14.4517 7.60739 14.4504C7.62669 14.4492 7.64597 14.4532 7.66317 14.4621H8.09011C8.11849 14.4621 8.14569 14.4733 8.16576 14.4934C8.18582 14.5135 8.19709 14.5407 8.19709 14.569V18.6775C8.19709 18.7059 8.20836 18.7331 8.22842 18.7532C8.24848 18.7732 8.27569 18.7845 8.30406 18.7845H10.4814C10.5097 18.7845 10.5369 18.7958 10.557 18.8158C10.5771 18.8359 10.5883 18.8631 10.5883 18.8915V19.2512C10.5883 19.2796 10.5771 19.3068 10.557 19.3268C10.5369 19.3469 10.5097 19.3582 10.4814 19.3582H7.66412C7.63575 19.3582 7.60854 19.3469 7.58848 19.3268C7.56842 19.3068 7.55715 19.2796 7.55715 19.2512L7.50792 14.569ZM6.01221 19.0278C5.65169 19.3089 5.20649 19.4594 4.74937 19.4547C4.2966 19.4756 3.84756 19.3641 3.45718 19.1338C3.1098 18.8968 2.84505 18.5572 2.69986 18.1625C2.52501 17.7476 2.43582 17.3017 2.43763 16.8514C2.42751 16.3894 2.52745 15.9315 2.7292 15.5157C2.9129 15.1492 3.20424 14.8476 3.56415 14.6514C3.93079 14.4654 4.3385 14.3752 4.74937 14.3892C5.19417 14.3744 5.63133 14.5075 5.99232 14.7678C6.30824 15.0154 6.53974 15.3547 6.65498 15.7391C6.66103 15.7537 6.66376 15.7694 6.663 15.7852C6.66224 15.801 6.658 15.8164 6.65058 15.8303C6.64316 15.8443 6.63274 15.8564 6.62008 15.8658C6.60742 15.8752 6.59283 15.8818 6.57736 15.8849L6.15042 15.9796C6.12472 15.9858 6.09763 15.9822 6.07438 15.9696C6.05113 15.9571 6.03337 15.9363 6.02451 15.9114C5.94668 15.6087 5.77299 15.3394 5.52941 15.1437C5.29764 14.997 5.02609 14.9259 4.75221 14.9401C4.40749 14.9224 4.06644 15.0178 3.78094 15.2118C3.52874 15.3906 3.34138 15.6464 3.24702 15.9407C3.14061 16.2534 3.08811 16.5818 3.09177 16.912C3.08415 17.2861 3.14677 17.6582 3.27637 18.0092C3.38072 18.3001 3.58105 18.5469 3.84436 18.7088C4.09581 18.8621 4.38482 18.9427 4.67931 18.9416C5.0306 18.964 5.37741 18.8531 5.65058 18.6311C5.89531 18.4139 6.06526 18.1251 6.13622 17.8057C6.13958 17.7913 6.14586 17.7778 6.15467 17.766C6.16348 17.7542 6.17464 17.7444 6.18744 17.7371C6.20023 17.7298 6.2144 17.7252 6.22904 17.7237C6.24368 17.7221 6.25849 17.7236 6.27254 17.728L6.70989 17.835C6.72423 17.8384 6.73772 17.8446 6.74952 17.8535C6.76131 17.8623 6.77116 17.8734 6.77845 17.8862C6.78574 17.899 6.79031 17.9132 6.79186 17.9278C6.79342 17.9425 6.79194 17.9573 6.78752 17.9713C6.64629 18.3963 6.37508 18.7662 6.01221 19.0287V19.0278ZM10.5779 25.2445C10.2165 25.503 9.7789 25.633 9.33497 25.6137C9.05056 25.6223 8.76755 25.5705 8.50466 25.4617C8.24176 25.3528 8.00496 25.1894 7.8099 24.9823C7.38882 24.504 7.17258 23.8795 7.20783 23.2432C7.16843 22.5861 7.38409 21.9391 7.8099 21.437C8.01305 21.2236 8.25943 21.056 8.53256 20.9455C8.80568 20.835 9.09926 20.7841 9.39366 20.7961C9.9051 20.7751 10.4042 20.9568 10.7824 21.3017C10.96 21.4766 11.0962 21.6892 11.1809 21.9236C11.1914 21.9529 11.1956 21.984 11.1933 22.015C11.1911 22.046 11.1823 22.0762 11.1677 22.1037C11.1531 22.1311 11.1329 22.1552 11.1085 22.1744C11.084 22.1936 11.0558 22.2075 11.0257 22.2152L10.5779 22.3316C10.5277 22.3449 10.4743 22.3395 10.4278 22.3163C10.3813 22.2931 10.3448 22.2538 10.3252 22.2057C10.2523 22.0197 10.1234 21.8609 9.95638 21.7514C9.78932 21.6418 9.59235 21.5869 9.39271 21.5942C9.23308 21.5879 9.0741 21.6179 8.92769 21.6818C8.78129 21.7458 8.65126 21.842 8.54735 21.9634C8.30249 22.3147 8.1889 22.7409 8.22643 23.1675C8.18483 23.6129 8.29818 24.0589 8.54735 24.4304C8.64741 24.5517 8.77367 24.6488 8.91663 24.7144C9.0596 24.78 9.21557 24.8123 9.37283 24.809C9.61219 24.8108 9.84379 24.7242 10.0232 24.5657C10.1798 24.4169 10.2938 24.229 10.3536 24.0214C10.3717 23.9781 10.4031 23.9416 10.4432 23.9171C10.4833 23.8926 10.5301 23.8814 10.577 23.8851L11.0626 24.0403C11.1182 24.0601 11.1638 24.101 11.1893 24.1542C11.2149 24.2074 11.2183 24.2686 11.1989 24.3243C11.086 24.6853 10.8702 25.0054 10.5779 25.2454V25.2445ZM11.4422 19.2711V14.5795C11.4409 14.5646 11.4427 14.5497 11.4475 14.5356C11.4523 14.5215 11.4599 14.5086 11.47 14.4976C11.4801 14.4867 11.4923 14.4779 11.5059 14.472C11.5196 14.466 11.5343 14.463 11.5492 14.463H11.9761C12.0045 14.463 12.0317 14.4743 12.0518 14.4943C12.0718 14.5144 12.0831 14.5416 12.0831 14.57V19.2616C12.0831 19.29 12.0718 19.3172 12.0518 19.3372C12.0317 19.3573 12.0045 19.3686 11.9761 19.3686H11.5492C11.5281 19.3626 11.5094 19.3504 11.4955 19.3335C11.4816 19.3165 11.4733 19.2957 11.4716 19.2739L11.4422 19.2711ZM15.8129 24.9823C15.5991 25.1976 15.3426 25.3658 15.0599 25.4762C14.7772 25.5865 14.4746 25.6366 14.1714 25.6231C13.8668 25.6368 13.5627 25.5869 13.2785 25.4766C12.9942 25.3662 12.7361 25.1979 12.5205 24.9823C12.3082 24.7456 12.1449 24.4692 12.0399 24.1691C11.935 23.869 11.8905 23.5512 11.9089 23.2338C11.8973 22.8251 11.9701 22.4184 12.1229 22.0391C12.2296 21.8013 12.3777 21.5843 12.5602 21.3982C12.7305 21.2196 12.9353 21.0776 13.1623 20.9807C13.471 20.8568 13.8009 20.7941 14.1336 20.7961C14.4382 20.7825 14.7423 20.8324 15.0265 20.9427C15.3108 21.0531 15.5689 21.2214 15.7845 21.437C16.2168 21.9211 16.4403 22.5563 16.4065 23.2044C16.4565 23.8453 16.2525 24.4801 15.8385 24.9718L15.8129 24.9823ZM15.4343 19.4557C14.9815 19.4766 14.5325 19.3651 14.1421 19.1348C13.7947 18.8977 13.53 18.5582 13.3848 18.1635C13.2099 17.7486 13.1207 17.3026 13.1225 16.8524C13.1123 16.39 13.2122 15.9318 13.4141 15.5157C13.5978 15.1492 13.8891 14.8476 14.2491 14.6514C14.6157 14.4654 15.0234 14.3752 15.4343 14.3892C15.8791 14.3744 16.3162 14.5075 16.6772 14.7678C16.9931 15.0154 17.2246 15.3547 17.3399 15.7391C17.3459 15.7537 17.3487 15.7694 17.3479 15.7852C17.3471 15.801 17.3429 15.8164 17.3355 15.8303C17.3281 15.8443 17.3176 15.8564 17.305 15.8658C17.2923 15.8752 17.2777 15.8818 17.2623 15.8849L16.8353 15.9796C16.8096 15.9858 16.7825 15.9822 16.7593 15.9696C16.736 15.9571 16.7183 15.9363 16.7094 15.9114C16.6248 15.6406 16.4626 15.4006 16.2427 15.2213C16.0049 15.0526 15.7181 14.9671 15.4267 14.978C15.082 14.9603 14.7409 15.0557 14.4554 15.2497C14.2038 15.429 14.0165 15.6846 13.9215 15.9786C13.8151 16.2912 13.7626 16.6197 13.7663 16.9499C13.7586 17.3239 13.8213 17.6961 13.9509 18.0471C14.0552 18.338 14.2555 18.5847 14.5189 18.7466C14.7703 18.8999 15.0593 18.9805 15.3538 18.9795C15.7051 19.0019 16.0519 18.891 16.3251 18.669C16.5698 18.4518 16.7397 18.1629 16.8107 17.8435C16.8177 17.8171 16.8345 17.7943 16.8577 17.7798C16.881 17.7654 16.9089 17.7604 16.9357 17.7659L17.373 17.8729C17.3874 17.8762 17.4009 17.8825 17.4126 17.8913C17.4244 17.9001 17.4343 17.9113 17.4416 17.9241C17.4489 17.9369 17.4534 17.951 17.455 17.9657C17.4566 17.9803 17.4551 17.9951 17.4506 18.0092C17.3046 18.4193 17.0367 18.775 16.6829 19.0287C16.3249 19.3078 15.8834 19.4582 15.4295 19.4557H15.4343ZM20.5528 25.2833C20.5528 25.3425 20.5293 25.3994 20.4874 25.4413C20.4455 25.4832 20.3887 25.5067 20.3294 25.5067H17.4355C17.3762 25.5067 17.3194 25.4832 17.2775 25.4413C17.2356 25.3994 17.2121 25.3425 17.2121 25.2833V21.1265C17.2121 21.0972 17.2179 21.0681 17.2291 21.041C17.2403 21.0139 17.2568 20.9893 17.2775 20.9685C17.2983 20.9478 17.3229 20.9313 17.35 20.9201C17.3771 20.9089 17.4062 20.9031 17.4355 20.9031H17.941C17.9704 20.9031 17.9994 20.9089 18.0265 20.9201C18.0536 20.9313 18.0782 20.9478 18.099 20.9685C18.1197 20.9893 18.1362 21.0139 18.1474 21.041C18.1586 21.0681 18.1644 21.0972 18.1644 21.1265V24.5345C18.1644 24.5937 18.188 24.6506 18.2299 24.6925C18.2718 24.7344 18.3286 24.7579 18.3878 24.7579H20.3304C20.3896 24.7579 20.4465 24.7814 20.4883 24.8233C20.5302 24.8652 20.5538 24.9221 20.5538 24.9813L20.5528 25.2833ZM24.5354 25.2833C24.5354 25.3425 24.5119 25.3994 24.47 25.4413C24.4281 25.4832 24.3713 25.5067 24.312 25.5067H21.4181C21.3588 25.5067 21.302 25.4832 21.2601 25.4413C21.2182 25.3994 21.1947 25.3425 21.1947 25.2833V21.1265C21.1947 21.0972 21.2005 21.0681 21.2117 21.041C21.2229 21.0139 21.2394 20.9893 21.2601 20.9685C21.2809 20.9478 21.3055 20.9313 21.3326 20.9201C21.3597 20.9089 21.3887 20.9031 21.4181 20.9031H21.9236C21.9529 20.9031 21.982 20.9089 22.0091 20.9201C22.0362 20.9313 22.0608 20.9478 22.0816 20.9685C22.1023 20.9893 22.1188 21.0139 22.13 21.041C22.1412 21.0681 22.147 21.0972 22.147 21.1265V24.5345C22.147 24.5937 22.1705 24.6506 22.2124 24.6925C22.2543 24.7344 22.3112 24.7579 22.3704 24.7579H24.313C24.3722 24.7579 24.429 24.7814 24.4709 24.8233C24.5128 24.8652 24.5364 24.9221 24.5364 24.9813L24.5354 25.2833ZM23.5623 18.9237C23.3216 18.6584 23.1927 18.3104 23.2025 17.9524C23.1998 17.6515 23.303 17.3593 23.4941 17.1269C23.7006 16.8831 23.9552 16.6846 24.242 16.5438C24.2541 16.5337 24.2638 16.5211 24.2705 16.5069C24.2772 16.4927 24.2807 16.4771 24.2807 16.4614C24.2807 16.4457 24.2772 16.4301 24.2705 16.4159C24.2638 16.4017 24.2541 16.3891 24.242 16.379C24.1051 16.2221 23.9878 16.0492 23.8926 15.8641C23.8243 15.7215 23.7877 15.5658 23.7857 15.4078C23.7857 15.2623 23.817 15.1185 23.8772 14.9861C23.9375 14.8537 24.0254 14.7357 24.135 14.64C24.3711 14.4187 24.6853 14.2999 25.0087 14.3097C25.1601 14.3038 25.3111 14.3282 25.4529 14.3815C25.5946 14.4348 25.7243 14.516 25.8342 14.6202C25.9374 14.7131 26.0194 14.8272 26.0748 14.9545C26.1302 15.0819 26.1576 15.2197 26.1551 15.3585C26.1359 15.6044 26.0496 15.8402 25.9057 16.0405C25.7619 16.2407 25.5659 16.3978 25.3391 16.4945C25.327 16.5046 25.3173 16.5172 25.3106 16.5314C25.3039 16.5456 25.3004 16.5612 25.3004 16.5769C25.3004 16.5926 25.3039 16.6082 25.3106 16.6224C25.3173 16.6366 25.327 16.6492 25.3391 16.6593L26.0292 17.5434C26.0387 17.5595 26.0522 17.5729 26.0684 17.5822C26.0845 17.5914 26.1029 17.5963 26.1215 17.5963C26.1402 17.5963 26.1585 17.5914 26.1747 17.5822C26.1909 17.5729 26.2044 17.5595 26.2138 17.5434C26.2697 17.4079 26.3153 17.2683 26.3502 17.126C26.3571 17.0993 26.3741 17.0763 26.3975 17.0619C26.421 17.0474 26.4491 17.0426 26.4761 17.0483L26.8841 17.1354C26.8984 17.1388 26.9119 17.1451 26.9237 17.1539C26.9355 17.1627 26.9453 17.1738 26.9526 17.1866C26.9599 17.1994 26.9645 17.2136 26.966 17.2282C26.9676 17.2429 26.9661 17.2577 26.9617 17.2717C26.884 17.5819 26.7629 17.8796 26.602 18.1559C26.5887 18.1742 26.5815 18.1962 26.5815 18.2189C26.5815 18.2415 26.5887 18.2635 26.602 18.2818C26.7824 18.5144 26.9914 18.7233 27.2239 18.9038C27.2345 18.9138 27.2429 18.9258 27.2486 18.9392C27.2543 18.9525 27.2573 18.9669 27.2573 18.9814C27.2573 18.9959 27.2543 19.0103 27.2486 19.0236C27.2429 19.037 27.2345 19.049 27.2239 19.059L26.9617 19.3695C26.9419 19.388 26.9159 19.3982 26.8888 19.3982C26.8618 19.3982 26.8357 19.388 26.8159 19.3695C26.5983 19.2112 26.3995 19.0286 26.2233 18.8252C26.2133 18.8147 26.2013 18.8063 26.1879 18.8005C26.1746 18.7948 26.1602 18.7918 26.1457 18.7918C26.1312 18.7918 26.1168 18.7948 26.1034 18.8005C26.0901 18.8063 26.0781 18.8147 26.0681 18.8252C25.9029 18.9942 25.709 19.1323 25.4953 19.2332C25.2583 19.3438 24.9996 19.4 24.738 19.3979C24.5088 19.4245 24.2766 19.398 24.0593 19.3205C23.8419 19.2431 23.6453 19.1167 23.4846 18.9511L23.5623 18.9237ZM28.7878 25.2861C28.7878 25.3454 28.7643 25.4022 28.7224 25.4441C28.6805 25.486 28.6236 25.5095 28.5644 25.5095H25.3808C25.3215 25.5095 25.2647 25.486 25.2228 25.4441C25.1809 25.4022 25.1574 25.3454 25.1574 25.2861V21.0877C25.1574 21.0285 25.1809 20.9716 25.2228 20.9297C25.2647 20.8878 25.3215 20.8643 25.3808 20.8643H28.4016C28.4608 20.8643 28.5176 20.8878 28.5595 20.9297C28.6014 20.9716 28.625 21.0285 28.625 21.0877V21.437C28.625 21.4963 28.6014 21.5531 28.5595 21.595C28.5176 21.6369 28.4608 21.6604 28.4016 21.6604H26.3189C26.2896 21.6604 26.2605 21.6662 26.2334 21.6774C26.2063 21.6887 26.1817 21.7051 26.1609 21.7259C26.1402 21.7466 26.1237 21.7712 26.1125 21.7984C26.1013 21.8255 26.0955 21.8545 26.0955 21.8838V22.4765C26.0955 22.5058 26.1013 22.5348 26.1125 22.5619C26.1237 22.5891 26.1402 22.6137 26.1609 22.6344C26.1817 22.6552 26.2063 22.6716 26.2334 22.6829C26.2605 22.6941 26.2896 22.6999 26.3189 22.6999H28.2615C28.3207 22.6999 28.3775 22.7234 28.4194 22.7653C28.4613 22.8072 28.4849 22.864 28.4849 22.9233V23.2726C28.4849 23.3318 28.4613 23.3887 28.4194 23.4306C28.3775 23.4725 28.3207 23.496 28.2615 23.496H26.3237C26.2644 23.496 26.2076 23.5195 26.1657 23.5614C26.1238 23.6033 26.1002 23.6602 26.1002 23.7194V24.5544C26.1002 24.6136 26.1238 24.6704 26.1657 24.7123C26.2076 24.7542 26.2644 24.7778 26.3237 24.7778H28.4849C28.5441 24.7778 28.6009 24.8013 28.6428 24.8432C28.6847 24.8851 28.7083 24.9419 28.7083 25.0012L28.7878 25.2861ZM32.7893 25.218C32.368 25.4987 31.8628 25.6259 31.3588 25.5782C30.8547 25.5304 30.3824 25.3106 30.0213 24.9557C29.6002 24.4775 29.384 23.853 29.4192 23.2167C29.3798 22.5596 29.5955 21.9126 30.0213 21.4105C30.2244 21.1971 30.4708 21.0295 30.7439 20.919C31.0171 20.8085 31.3107 20.7576 31.605 20.7696C32.1165 20.7486 32.6156 20.9303 32.9938 21.2751C33.1716 21.4499 33.3078 21.6625 33.3923 21.8971C33.4028 21.9264 33.407 21.9575 33.4047 21.9885C33.4025 22.0195 33.3937 22.0497 33.3791 22.0772C33.3645 22.1046 33.3443 22.1287 33.3199 22.1479C33.2954 22.1671 33.2672 22.181 33.2371 22.1887L32.7316 22.3051C32.6813 22.3184 32.628 22.3129 32.5815 22.2898C32.535 22.2666 32.4985 22.2273 32.4788 22.1792C32.4059 21.9932 32.2771 21.8344 32.11 21.7249C31.943 21.6153 31.746 21.5604 31.5464 21.5677C31.3867 21.5614 31.2277 21.5914 31.0813 21.6553C30.9349 21.7193 30.8049 21.8155 30.701 21.9369C30.4561 22.2882 30.3425 22.7144 30.3801 23.141C30.3385 23.5863 30.4518 24.0324 30.701 24.4038C30.8011 24.5252 30.9273 24.6223 31.0703 24.6879C31.2132 24.7535 31.3692 24.7858 31.5265 24.7825C31.7658 24.7843 31.9974 24.6977 32.1768 24.5392C32.3334 24.3904 32.4475 24.2025 32.5072 23.9949C32.5251 23.9403 32.5633 23.8948 32.6139 23.8676C32.6645 23.8405 32.7236 23.8338 32.7789 23.8491L33.2645 24.0044C33.3202 24.0241 33.3657 24.065 33.3913 24.1182C33.4168 24.1715 33.4203 24.2326 33.4009 24.2884C33.2765 24.6729 33.0352 25.0092 32.7107 25.2502L32.7893 25.218ZM37.4516 21.6207H36.4832C36.4239 21.6207 36.3671 21.6442 36.3252 21.6861C36.2833 21.728 36.2598 21.7848 36.2598 21.8441V25.2823C36.2598 25.3416 36.2362 25.3984 36.1943 25.4403C36.1524 25.4822 36.0956 25.5058 36.0363 25.5058H35.5308C35.4716 25.5058 35.4148 25.4822 35.3729 25.4403C35.331 25.3984 35.3074 25.3416 35.3074 25.2823V21.8744C35.3074 21.8151 35.2839 21.7583 35.242 21.7164C35.2001 21.6745 35.1433 21.651 35.084 21.651H34.1137C34.0544 21.651 33.9976 21.6274 33.9557 21.5855C33.9138 21.5436 33.8903 21.4868 33.8903 21.4276V21.0782C33.8903 21.019 33.9138 20.9622 33.9557 20.9203C33.9976 20.8784 34.0544 20.8548 34.1137 20.8548H37.3834C37.4427 20.8548 37.4995 20.8784 37.5414 20.9203C37.5833 20.9622 37.6068 21.019 37.6068 21.0782V21.4276C37.6068 21.4868 37.5833 21.5436 37.5414 21.5855C37.4995 21.6274 37.4427 21.651 37.3834 21.651L37.4516 21.6207Z" fill="white"/>
</g>
<defs>
<clipPath id="clip0_203_2387">
<rect width="40" height="40" fill="white"/>
</clipPath>
</defs>
</svg>
